{
    "swagger": "2.0",
    "info": {
        "title": "Iwanwork and Hollajobs Restfull Api",
        "description": "Designed by Olagunju Adewale (Lead Developer) and powered by Silicon Harbour Limited"
    },
    "version": "1.0.0",
    "host": "localhost:3000",
    "basePath": "/api/v1",
    "tage": [
        {
            "name": "Authentication",
            "description": "API for users's authentication"
        },
        {
            "name": "Booking",
            "description": "API for Requesting for worker"
        }
    ],
    "schemes": ["http"],
    "consumes": ["application/json"],
    "produces": ["application/json"],
    "paths": {
        "/auth/register":{
            "post":{
                "tags": ["Authentication"],
                "summary": "API Endpoint for registration",
                "description": "User params to register new user",
                "parameters": [
                    {
                        "name": "Authentication",
                        "description":"User params to register new user",
                        "in": "body",
                        "required": "true",
                        "schema": {
                            "$ref": "#definitions/UserReg"
                        }
                    }
                ],
                "produces": ["application/json"],
                "responses": {
                    "200": {
                        "description": "New user has be created",
                        "schema":{
                            "$ref": "#definitions/SignUpRsp"
                        }
                    }
                }                
            }
        },
        "/auth/signin":{
            "post":{
                "tags": ["Authentication"],
                "summary": "API Endpoint for Signing In",
                "description": "User params to Log in",
                "parameters": [
                    {
                        "name": "Authentication",
                        "description":"User params to log in",
                        "in": "body",
                        "required": "true",
                        "schema": {
                            "$ref": "#definitions/UserLogin"
                        }
                    }
                ],
                "produces": ["application/json"],
                "responses": {
                    "200": {
                        "description": "User Signed In",
                        "schema":{
                            "$ref": "#definitions/UserLoginRsp"
                        }
                    }
                }                
            }
        },
        "/booking/request":{
            "post":{
                "tags": ["Booking"],
                "summary": "API Endpoint for request for a worker",
                "description": "params to request for a worker",
                "parameters": [
                    {
                        "name": "Booking",
                        "description":"params to request for a worker",
                        "in": "body",
                        "required": "true",
                        "schema": {
                            "$ref": "#definitions/WorkerRequest"
                        }
                    }
                ],
                "produces": ["application/json"],
                "responses": {
                    "200": {
                        "description": "Worker has been requested",
                        "schema":{
                            "$ref": "#definitions/SignUpRsp"
                        }
                    }
                }                
            }
        },
        "/booking/all-jobs":{
            "get":{
                "tags": ["Booking"],
                "summary": "API Endpoint for To see all Available Jobs",
                "description": "see all existing jobs",
                "parameters": [
                    {
                        "name": "Booking",
                        "description":"See all existeing Jobs",
                        "in": "body",
                        "required": "true",
                        "schema": {
                            "$ref": "#definitions/WorkerRequest"
                        }
                    }
                ],
                "produces": ["application/json"],
                "responses": {
                    "200": {
                        "description": "Worker has been requested",
                        "schema":{
                            "$ref": "#definitions/SignUpRsp"
                        }
                    }
                }                
            }
        },
        "/booking/{workersId}/offers":{
            "get":{
                "tags": ["Booking"],
                "summary": "API Endpoint for To see all Available Jobs",
                "description": "see all existing jobs",
                "parameters": [
                    {
                        "name": "Booking",
                        "description":"See all existeing Jobs",
                        "in": "body",
                        "required": "true",
                        "schema": {
                            "$ref": "#definitions/WorkerRequest"
                        }
                    }
                ],
                "produces": ["application/json"],
                "responses": {
                    "200": {
                        "description": "Worker has been requested",
                        "schema":{
                            "$ref": "#definitions/SignUpRsp"
                        }
                    }
                }                
            }
        },
        "/booking/{clientsId}/request":{
            "get":{
                "tags": ["Booking"],
                "summary": "API Endpoint for To see all Available Jobs",
                "description": "see all existing jobs",
                "parameters": [
                    {
                        "name": "Booking",
                        "description":"See all existeing Jobs",
                        "in": "body",
                        "required": "true",
                        "schema": {
                            "$ref": "#definitions/WorkerRequest"
                        }
                    }
                ],
                "produces": ["application/json"],
                "responses": {
                    "200": {
                        "description": "Worker has been requested",
                        "schema":{
                            "$ref": "#definitions/SignUpRsp"
                        }
                    }
                }                
            }
        },
        "/booking/{clientId}/{workerId}/job/{jobId}/":{
            "patch":{
                "tags": ["Booking"],
                "summary": "API Endpoint for To see all Available Jobs",
                "description": "see all existing jobs",
                "parameters": [
                    {
                        "name": "Booking",
                        "description":"See all existeing Jobs",
                        "in": "body",
                        "required": "true",
                        "schema": {
                            "$ref": "#definitions/WorkerRequest"
                        }
                    }
                ],
                "produces": ["application/json"],
                "responses": {
                    "200": {
                        "description": "Worker has been requested",
                        "schema":{
                            "$ref": "#definitions/SignUpRsp"
                        }
                    }
                }                
            }
        },
        "/booking/{clientId}/{workerId}/job/{jobId}/cancel":{
            "put":{
                "tags": ["Booking"],
                "summary": "API Endpoint for To see all Available Jobs",
                "description": "see all existing jobs",
                "parameters": [
                    {
                        "name": "Booking",
                        "description":"See all existeing Jobs",
                        "in": "body",
                        "required": "true",
                        "schema": {
                            "$ref": "#definitions/WorkerRequest"
                        }
                    }
                ],
                "produces": ["application/json"],
                "responses": {
                    "200": {
                        "description": "Worker has been requested",
                        "schema":{
                            "$ref": "#definitions/SignUpRsp"
                        }
                    }
                }                
            }
        }
    },
    "definitions": {
        "SignUpRsp": {
            "properties": {
                "success": { "type":"boolean"}
            }
        },
        "UserLoginRsp": {
            "properties": {
                "token": {"type": "string"}
            }
        },
        "UserLogin": {
            "required": [ "phone", "password", "rights" ],
            "properties": {
                "password": { "type": "string" },
                "phone": { "type": "integer","format": "Int32" },
                "rights": { "type": "string" }
            }
        },
        "UserReg" : {
            "required": ["firstName", "lastName", "password", "accept_discliamer", "email", "phone", "rights"],
            "properties": {
                "firstName": { "type": "string"},
                "lastName": { "type": "string"},
                "password": { "type": "string"},
                "accept_discliamer" : { "type": "boolean" },
                "sex" : { "type": "string" },
                "email" : { "type": "string" },
                "phone" : { "type": "integer", "format": "Int32" },
                "address" : { "type": "string" },
                "rights" : { "type": "string" },
                "skills" : { "type": "string"}
            }
        },
        "WorkerRequest" : {
            "properties": {
                "seekersId": { "type": "string"},
                "workersId": { "type": "string"}
            }
        },
        "Booking" : {
            "properties": {
                "seekersId": { "type": "string"},
                "workersId": { "type": "string"},
                "status": { "type": "string", "enum": ["pending", "accepted", "arrived", "inprogress", "completed", "rejected", "cancel"]},
                "cancelReason": { 
                        "canceller": { "type": "mongoose.Schema.Types.ObjectId", "ref": "User" },
                        "reason": { "type": "string" },
                        "time": { "type": "Date" }
                }
            }
        }
    }
}